France Avignon 460,000 529 1,369 800 A:A 300 2016 2012 445,000
France Besancon 135,000 47 122 2,900 A:A 1,100 2008 2008 137,000
France Bethune 350,000 290 751 1,200 D:A 500 2016 2015 350,000
France Bordeaux 950,000 314 812 3,000 C:B 1,200 2016 2012 906,000
France Brest 200,000 77 199 2,600 A:A 1,000 2008 2008 201,000
France Caen 200,000 55 142 3,600 A:A 1,400 2008 2008 198,000
France Calais 105,000 53 137 2,000 A:A 800 1999 1999 105,000
France Chambery 175,000 124 321 1,400 A:A 500 2008 2008 175,000
France Clermont-Ferrand 260,000 70 181 3,700 A:A 1,400 2008 2008 260,000
France Dijon 240,000 64 166 3,700 A:A 1,400 2008 2008 238,000
France Douai-Lens 510,000 187 484 2,700 A:A 1,000 2016 2012 506,000
France Dunkerque 180,000 65 167 2,800 A:A 1,100 2008 2008 181,000
France Grenoble 515,000 198 513 2,600 A:A 1,000 2016 2012 505,000
France La-Rochelle 125,000 48 124 2,600 A:A 1,000 2008 2008 127,000
France Le-Havre 245,000 74 192 3,300 A:A 1,300 2008 2008 244,000
France Le-Mans 210,000 114 295 1,800 A:A 700 2008 2008 208,000
France Lille 1,060,000 171 443 6,200 C:B 2,400 2016 2012 1,044,000
France Limoges 185,000 91 236 2,000 A:A 800 2008 2008 186,000
France Lorient 115,000 41 107 2,800 A:A 1,100 2008 2008 116,000
France Lyon 1,635,000 455 1,178 3,600 C:B 1,400 2016 2012 1,584,000
France Marseille 1,610,000 266 689 6,100 C:B 2,300 2016 2012 1,566,000
France Metz 290,000 118 306 2,500 A:A 900 2008 2008 290,000
France Montbeliard 115,000 54 140 2,100 A:A 800 1999 1999 113,000
France Montpellier 425,000 120 311 3,400 A:A 1,300 2016 2012 406,000
France Mulhouse 245,000 92 238 2,700 A:A 1,000 2008 2008 244,000
France Nancy 285,000 95 246 3,000 A:A 1,200 2008 2008 287,000
France Nantes 890,000 453 1,173 1,900 A:A 700 2016 2012 863,000
France Nice 970,000 287 744 3,400 C:B 1,300 2016 2012 944,000
France Nimes 175,000 103 267 1,700 A:A 600 2008 2008 173,000
France Orleans 270,000 112 290 2,400 A:A 900 2008 2008 269,000
France Paris 10,870,000 1,098 2,845 9,600 A:A 3,700 2016 2012 10,550,000
France Pau 200,000 199 515 1,000 A:A 400 2008 2008 199,000
France Perpignan 190,000 84 218 2,300 A:A 900 2008 2008 189,000
France Poitiers 130,000 67 174 1,900 A:A 700 2008 2008 129,000
France Reims 210,000 36 94 5,800 A:A 2,200 2008 2008 210,000
France Rennes 335,000 110 285 2,800 A:A 1,100 2016 2008 305,000
France Rouen 470,000 175 453 2,700 A:A 1,000 2016 2012 465,000
France Saint-Etienne 375,000 162 420 2,300 A:A 900 2016 2008 372,000
France Saint-Nazaire 145,000 118 306 1,200 A:A 500 2008 2008 147,000
France Strasbourg 465,000 93 240 5,000 A:B 1,900 2016 2012 454,000
France Thionville 130,000 53 137 2,500 A:A 900 1999 1999 130,000
France Toulon 580,000 295 764 1,900 A:A 700 2016 2012 561,000
France Toulouse 955,000 313 811 3,100 C:B 1,200 2016 2012 906,000
France Tours 360,000 257 666 1,300 A:A 500 2016 2008 345,000
France Troyes 135,000 67 174 2,000 A:A 800 2008 2008 133,000
France Valence 125,000 70 181 1,800 A:A 700 2008 2008 127,000
France Valenciennes 330,000 196 507 1,700 A:A 700 2016 2015 330,000