446 Turkey Adana 1,125,000 63 163 17,900 C:B 6,900 2016 2011 980,000
89 Turkey Ankara 4,640,000 255 660 18,200 C:B 7,000 2016 2011 4,150,000
583 Turkey Antalya 850,000 70 181 12,100 C:B 4,700 2016 2015 825,000
265 Turkey Bursa 1,890,000 80 207 23,600 C:B 9,100 2016 2011 1,650,000
960 Turkey Denizli 530,000 37 96 14,300 D:B 5,500 2016 2015 520,000
538 Turkey Diyarbakir 935,000 24 62 39,000 D:B 15,000 2016 2015 920,000
697 Turkey Eskisehir 715,000 43 111 16,600 D:B 6,400 2016 2015 700,000
349 Turkey Gaziantep 1,435,000 44 114 32,600 C:B 12,600 2016 2011 1,250,000
23 Turkey Istanbul 13,520,000 525 1,360 25,800 C:B 9,900 2016 2011 12,400,000
147 Turkey Izmir 3,170,000 115 298 27,600 C:B 10,600 2016 2011 2,900,000
548 Turkey Kayseri 915,000 39 101 23,500 D:B 9,100 2016 2015 900,000
404 Turkey Konya 1,225,000 50 130 24,500 D:B 9,500 2016 2015 1,190,000
573 Turkey Mersin 875,000 29 75 30,200 D:B 11,600 2016 2015 850,000
892 Turkey Samsun 575,000 26 67 22,100 D:B 8,500 2016 2015 560,000
Turkey Tarsus 225,000 7 18 32,100 C:B 12,400 2007 2007 225,000
921 Turkey Urfa 560,000 16 41 35,000 D:B 13,500 2016 2015 550,000